[
    {
        "model": "homes.municipality",
        "pk": 1,
        "fields": {
            "name_municipality": "Alto Orinoco",
            "id_state_id": 1
        }
    },
    {
        "model": "homes.municipality",
        "pk": 2,
        "fields": {
            "name_municipality": "Atabapo",
            "id_state_id": 1
        }
    },
    {
        "model": "homes.municipality",
        "pk": 3,
        "fields": {
            "name_municipality": "Atures",
            "id_state_id": 1
        }
    },
    {
        "model": "homes.municipality",
        "pk": 4,
        "fields": {
            "name_municipality": "Autana",
            "id_state_id": 1
        }
    },
    {
        "model": "homes.municipality",
        "pk": 5,
        "fields": {
            "name_municipality": "Manapiare",
            "id_state_id": 1
        }
    },
    {
        "model": "homes.municipality",
        "pk": 6,
        "fields": {
            "name_municipality": "Maroa",
            "id_state_id": 1
        }
    },
    {
        "model": "homes.municipality",
        "pk": 7,
        "fields": {
            "name_municipality": "Río Negro",
            "id_state_id": 1
        }
    },
    {
        "model": "homes.municipality",
        "pk": 8,
        "fields": {
            "name_municipality": "Anaco",
            "id_state_id": 2
        }
    },
    {
        "model": "homes.municipality",
        "pk": 9,
        "fields": {
            "name_municipality": "Aragua",
            "id_state_id": 2
        }
    },
    {
        "model": "homes.municipality",
        "pk": 10,
        "fields": {
            "name_municipality": "Manuel Ezequiel Bruzual",
            "id_state_id": 2
        }
    },
    {
        "model": "homes.municipality",
        "pk": 11,
        "fields": {
            "name_municipality": "Diego Bautista Urbaneja",
            "id_state_id": 2
        }
    },
    {
        "model": "homes.municipality",
        "pk": 12,
        "fields": {
            "name_municipality": "Fernando Peñalver",
            "id_state_id": 2
        }
    },
    {
        "model": "homes.municipality",
        "pk": 13,
        "fields": {
            "name_municipality": "Francisco Del Carmen Carvajal",
            "id_state_id": 2
        }
    },
    {
        "model": "homes.municipality",
        "pk": 14,
        "fields": {
            "name_municipality": "General Sir Arthur McGregor",
            "id_state_id": 2
        }
    },
    {
        "model": "homes.municipality",
        "pk": 15,
        "fields": {
            "name_municipality": "Guanta",
            "id_state_id": 2
        }
    },
    {
        "model": "homes.municipality",
        "pk": 16,
        "fields": {
            "name_municipality": "Independencia",
            "id_state_id": 2
        }
    },
    {
        "model": "homes.municipality",
        "pk": 17,
        "fields": {
            "name_municipality": "José Gregorio Monagas",
            "id_state_id": 2
        }
    },
    {
        "model": "homes.municipality",
        "pk": 18,
        "fields": {
            "name_municipality": "Juan Antonio Sotillo",
            "id_state_id": 2
        }
    },
    {
        "model": "homes.municipality",
        "pk": 19,
        "fields": {
            "name_municipality": "Juan Manuel Cajigal",
            "id_state_id": 2
        }
    },
    {
        "model": "homes.municipality",
        "pk": 20,
        "fields": {
            "name_municipality": "Libertad",
            "id_state_id": 2
        }
    },
    {
        "model": "homes.municipality",
        "pk": 21,
        "fields": {
            "name_municipality": "Francisco de Miranda",
            "id_state_id": 2
        }
    },
    {
        "model": "homes.municipality",
        "pk": 22,
        "fields": {
            "name_municipality": "Pedro María Freites",
            "id_state_id": 2
        }
    },
    {
        "model": "homes.municipality",
        "pk": 23,
        "fields": {
            "name_municipality": "Píritu",
            "id_state_id": 2
        }
    },
    {
        "model": "homes.municipality",
        "pk": 24,
        "fields": {
            "name_municipality": "San José de Guanipa",
            "id_state_id": 2
        }
    },
    {
        "model": "homes.municipality",
        "pk": 25,
        "fields": {
            "name_municipality": "San Juan de Capistrano",
            "id_state_id": 2
        }
    },
    {
        "model": "homes.municipality",
        "pk": 26,
        "fields": {
            "name_municipality": "Santa Ana",
            "id_state_id": 2
        }
    },
    {
        "model": "homes.municipality",
        "pk": 27,
        "fields": {
            "name_municipality": "Simón Bolívar",
            "id_state_id": 2
        }
    },
    {
        "model": "homes.municipality",
        "pk": 28,
        "fields": {
            "name_municipality": "Simón Rodríguez",
            "id_state_id": 2
        }
    },
    {
        "model": "homes.municipality",
        "pk": 29,
        "fields": {
            "name_municipality": "Achaguas",
            "id_state_id": 3
        }
    },
    {
        "model": "homes.municipality",
        "pk": 30,
        "fields": {
            "name_municipality": "Biruaca",
            "id_state_id": 3
        }
    },
    {
        "model": "homes.municipality",
        "pk": 31,
        "fields": {
            "name_municipality": "Muñóz",
            "id_state_id": 3
        }
    },
    {
        "model": "homes.municipality",
        "pk": 32,
        "fields": {
            "name_municipality": "Páez",
            "id_state_id": 3
        }
    },
    {
        "model": "homes.municipality",
        "pk": 33,
        "fields": {
            "name_municipality": "Pedro Camejo",
            "id_state_id": 3
        }
    },
    {
        "model": "homes.municipality",
        "pk": 34,
        "fields": {
            "name_municipality": "Rómulo Gallegos",
            "id_state_id": 3
        }
    },
    {
        "model": "homes.municipality",
        "pk": 35,
        "fields": {
            "name_municipality": "San Fernando",
            "id_state_id": 3
        }
    },
    {
        "model": "homes.municipality",
        "pk": 36,
        "fields": {
            "name_municipality": "Atanasio Girardot",
            "id_state_id": 4
        }
    },
    {
        "model": "homes.municipality",
        "pk": 37,
        "fields": {
            "name_municipality": "Bolívar",
            "id_state_id": 4
        }
    },
    {
        "model": "homes.municipality",
        "pk": 38,
        "fields": {
            "name_municipality": "Camatagua",
            "id_state_id": 4
        }
    },
    {
        "model": "homes.municipality",
        "pk": 39,
        "fields": {
            "name_municipality": "Francisco Linares Alcántara",
            "id_state_id": 4
        }
    },
    {
        "model": "homes.municipality",
        "pk": 40,
        "fields": {
            "name_municipality": "José Ángel Lamas",
            "id_state_id": 4
        }
    },
    {
        "model": "homes.municipality",
        "pk": 41,
        "fields": {
            "name_municipality": "José Félix Ribas",
            "id_state_id": 4
        }
    },
    {
        "model": "homes.municipality",
        "pk": 42,
        "fields": {
            "name_municipality": "José Rafael Revenga",
            "id_state_id": 4
        }
    },
    {
        "model": "homes.municipality",
        "pk": 43,
        "fields": {
            "name_municipality": "Libertador",
            "id_state_id": 4
        }
    },
    {
        "model": "homes.municipality",
        "pk": 44,
        "fields": {
            "name_municipality": "Mario Briceño Iragorry",
            "id_state_id": 4
        }
    },
    {
        "model": "homes.municipality",
        "pk": 45,
        "fields": {
            "name_municipality": "Ocumare de la Costa de Oro",
            "id_state_id": 4
        }
    },
    {
        "model": "homes.municipality",
        "pk": 46,
        "fields": {
            "name_municipality": "San Casimiro",
            "id_state_id": 4
        }
    },
    {
        "model": "homes.municipality",
        "pk": 47,
        "fields": {
            "name_municipality": "San Sebastián",
            "id_state_id": 4
        }
    },
    {
        "model": "homes.municipality",
        "pk": 48,
        "fields": {
            "name_municipality": "Santiago Mariño",
            "id_state_id": 4
        }
    },
    {
        "model": "homes.municipality",
        "pk": 49,
        "fields": {
            "name_municipality": "Santos Michelena",
            "id_state_id": 4
        }
    },
    {
        "model": "homes.municipality",
        "pk": 50,
        "fields": {
            "name_municipality": "Sucre",
            "id_state_id": 4
        }
    },
    {
        "model": "homes.municipality",
        "pk": 51,
        "fields": {
            "name_municipality": "Tovar",
            "id_state_id": 4
        }
    },
    {
        "model": "homes.municipality",
        "pk": 52,
        "fields": {
            "name_municipality": "Urdaneta",
            "id_state_id": 4
        }
    },
    {
        "model": "homes.municipality",
        "pk": 53,
        "fields": {
            "name_municipality": "Zamora",
            "id_state_id": 4
        }
    },
    {
        "model": "homes.municipality",
        "pk": 54,
        "fields": {
            "name_municipality": "Alberto Arvelo Torrealba",
            "id_state_id": 5
        }
    },
    {
        "model": "homes.municipality",
        "pk": 55,
        "fields": {
            "name_municipality": "Andrés Eloy Blanco",
            "id_state_id": 5
        }
    },
    {
        "model": "homes.municipality",
        "pk": 56,
        "fields": {
            "name_municipality": "Antonio José de Sucre",
            "id_state_id": 5
        }
    },
    {
        "model": "homes.municipality",
        "pk": 57,
        "fields": {
            "name_municipality": "Arismendi",
            "id_state_id": 5
        }
    },
    {
        "model": "homes.municipality",
        "pk": 58,
        "fields": {
            "name_municipality": "Barinas",
            "id_state_id": 5
        }
    },
    {
        "model": "homes.municipality",
        "pk": 59,
        "fields": {
            "name_municipality": "Bolívar",
            "id_state_id": 5
        }
    },
    {
        "model": "homes.municipality",
        "pk": 60,
        "fields": {
            "name_municipality": "Cruz Paredes",
            "id_state_id": 5
        }
    },
    {
        "model": "homes.municipality",
        "pk": 61,
        "fields": {
            "name_municipality": "Ezequiel Zamora",
            "id_state_id": 5
        }
    },
    {
        "model": "homes.municipality",
        "pk": 62,
        "fields": {
            "name_municipality": "Obispos",
            "id_state_id": 5
        }
    },
    {
        "model": "homes.municipality",
        "pk": 63,
        "fields": {
            "name_municipality": "Pedraza",
            "id_state_id": 5
        }
    },
    {
        "model": "homes.municipality",
        "pk": 64,
        "fields": {
            "name_municipality": "Rojas",
            "id_state_id": 5
        }
    },
    {
        "model": "homes.municipality",
        "pk": 65,
        "fields": {
            "name_municipality": "Sosa",
            "id_state_id": 5
        }
    },
    {
        "model": "homes.municipality",
        "pk": 66,
        "fields": {
            "name_municipality": "Caroní",
            "id_state_id": 6
        }
    },
    {
        "model": "homes.municipality",
        "pk": 67,
        "fields": {
            "name_municipality": "Cedeño",
            "id_state_id": 6
        }
    },
    {
        "model": "homes.municipality",
        "pk": 68,
        "fields": {
            "name_municipality": "El Callao",
            "id_state_id": 6
        }
    },
    {
        "model": "homes.municipality",
        "pk": 69,
        "fields": {
            "name_municipality": "Gran Sabana",
            "id_state_id": 6
        }
    },
    {
        "model": "homes.municipality",
        "pk": 70,
        "fields": {
            "name_municipality": "Heres",
            "id_state_id": 6
        }
    },
    {
        "model": "homes.municipality",
        "pk": 71,
        "fields": {
            "name_municipality": "Piar",
            "id_state_id": 6
        }
    },
    {
        "model": "homes.municipality",
        "pk": 72,
        "fields": {
            "name_municipality": "Angostura (Raúl Leoni)",
            "id_state_id": 6
        }
    },
    {
        "model": "homes.municipality",
        "pk": 73,
        "fields": {
            "name_municipality": "Roscio",
            "id_state_id": 6
        }
    },
    {
        "model": "homes.municipality",
        "pk": 74,
        "fields": {
            "name_municipality": "Sifontes",
            "id_state_id": 6
        }
    },
    {
        "model": "homes.municipality",
        "pk": 75,
        "fields": {
            "name_municipality": "Sucre",
            "id_state_id": 6
        }
    },
    {
        "model": "homes.municipality",
        "pk": 76,
        "fields": {
            "name_municipality": "Padre Pedro Chien",
            "id_state_id": 6
        }
    },
    {
        "model": "homes.municipality",
        "pk": 77,
        "fields": {
            "name_municipality": "Bejuma",
            "id_state_id": 7
        }
    },
    {
        "model": "homes.municipality",
        "pk": 78,
        "fields": {
            "name_municipality": "Carlos Arvelo",
            "id_state_id": 7
        }
    },
    {
        "model": "homes.municipality",
        "pk": 79,
        "fields": {
            "name_municipality": "Diego Ibarra",
            "id_state_id": 7
        }
    },
    {
        "model": "homes.municipality",
        "pk": 80,
        "fields": {
            "name_municipality": "Guacara",
            "id_state_id": 7
        }
    },
    {
        "model": "homes.municipality",
        "pk": 81,
        "fields": {
            "name_municipality": "Juan José Mora",
            "id_state_id": 7
        }
    },
    {
        "model": "homes.municipality",
        "pk": 82,
        "fields": {
            "name_municipality": "Libertador",
            "id_state_id": 7
        }
    },
    {
        "model": "homes.municipality",
        "pk": 83,
        "fields": {
            "name_municipality": "Los Guayos",
            "id_state_id": 7
        }
    },
    {
        "model": "homes.municipality",
        "pk": 84,
        "fields": {
            "name_municipality": "Miranda",
            "id_state_id": 7
        }
    },
    {
        "model": "homes.municipality",
        "pk": 85,
        "fields": {
            "name_municipality": "Montalbán",
            "id_state_id": 7
        }
    },
    {
        "model": "homes.municipality",
        "pk": 86,
        "fields": {
            "name_municipality": "Naguanagua",
            "id_state_id": 7
        }
    },
    {
        "model": "homes.municipality",
        "pk": 87,
        "fields": {
            "name_municipality": "Puerto Cabello",
            "id_state_id": 7
        }
    },
    {
        "model": "homes.municipality",
        "pk": 88,
        "fields": {
            "name_municipality": "San Diego",
            "id_state_id": 7
        }
    },
    {
        "model": "homes.municipality",
        "pk": 89,
        "fields": {
            "name_municipality": "San Joaquín",
            "id_state_id": 7
        }
    },
    {
        "model": "homes.municipality",
        "pk": 90,
        "fields": {
            "name_municipality": "Valencia",
            "id_state_id": 7
        }
    },
    {
        "model": "homes.municipality",
        "pk": 91,
        "fields": {
            "name_municipality": "Anzoátegui",
            "id_state_id": 8
        }
    },
    {
        "model": "homes.municipality",
        "pk": 92,
        "fields": {
            "name_municipality": "Tinaquillo",
            "id_state_id": 8
        }
    },
    {
        "model": "homes.municipality",
        "pk": 93,
        "fields": {
            "name_municipality": "Girardot",
            "id_state_id": 8
        }
    },
    {
        "model": "homes.municipality",
        "pk": 94,
        "fields": {
            "name_municipality": "Lima Blanco",
            "id_state_id": 8
        }
    },
    {
        "model": "homes.municipality",
        "pk": 95,
        "fields": {
            "name_municipality": "Pao de San Juan Bautista",
            "id_state_id": 8
        }
    },
    {
        "model": "homes.municipality",
        "pk": 96,
        "fields": {
            "name_municipality": "Ricaurte",
            "id_state_id": 8
        }
    },
    {
        "model": "homes.municipality",
        "pk": 97,
        "fields": {
            "name_municipality": "Rómulo Gallegos",
            "id_state_id": 8
        }
    },
    {
        "model": "homes.municipality",
        "pk": 98,
        "fields": {
            "name_municipality": "San Carlos",
            "id_state_id": 8
        }
    },
    {
        "model": "homes.municipality",
        "pk": 99,
        "fields": {
            "name_municipality": "Tinaco",
            "id_state_id": 8
        }
    },
    {
        "model": "homes.municipality",
        "pk": 100,
        "fields": {
            "name_municipality": "Antonio Díaz",
            "id_state_id": 9
        }
    },
    {
        "model": "homes.municipality",
        "pk": 101,
        "fields": {
            "name_municipality": "Casacoima",
            "id_state_id": 9
        }
    },
    {
        "model": "homes.municipality",
        "pk": 102,
        "fields": {
            "name_municipality": "Pedernales",
            "id_state_id": 9
        }
    },
    {
        "model": "homes.municipality",
        "pk": 103,
        "fields": {
            "name_municipality": "Tucupita",
            "id_state_id": 9
        }
    },
    {
        "model": "homes.municipality",
        "pk": 104,
        "fields": {
            "name_municipality": "Acosta",
            "id_state_id": 10
        }
    },
    {
        "model": "homes.municipality",
        "pk": 105,
        "fields": {
            "name_municipality": "Bolívar",
            "id_state_id": 10
        }
    },
    {
        "model": "homes.municipality",
        "pk": 106,
        "fields": {
            "name_municipality": "Buchivacoa",
            "id_state_id": 10
        }
    },
    {
        "model": "homes.municipality",
        "pk": 107,
        "fields": {
            "name_municipality": "Cacique Manaure",
            "id_state_id": 10
        }
    },
    {
        "model": "homes.municipality",
        "pk": 108,
        "fields": {
            "name_municipality": "Carirubana",
            "id_state_id": 10
        }
    },
    {
        "model": "homes.municipality",
        "pk": 109,
        "fields": {
            "name_municipality": "Colina",
            "id_state_id": 10
        }
    },
    {
        "model": "homes.municipality",
        "pk": 110,
        "fields": {
            "name_municipality": "Dabajuro",
            "id_state_id": 10
        }
    },
    {
        "model": "homes.municipality",
        "pk": 111,
        "fields": {
            "name_municipality": "Democracia",
            "id_state_id": 10
        }
    },
    {
        "model": "homes.municipality",
        "pk": 112,
        "fields": {
            "name_municipality": "Falcón",
            "id_state_id": 10
        }
    },
    {
        "model": "homes.municipality",
        "pk": 113,
        "fields": {
            "name_municipality": "Federación",
            "id_state_id": 10
        }
    },
    {
        "model": "homes.municipality",
        "pk": 114,
        "fields": {
            "name_municipality": "Jacura",
            "id_state_id": 10
        }
    },
    {
        "model": "homes.municipality",
        "pk": 115,
        "fields": {
            "name_municipality": "José Laurencio Silva",
            "id_state_id": 10
        }
    },
    {
        "model": "homes.municipality",
        "pk": 116,
        "fields": {
            "name_municipality": "Los Taques",
            "id_state_id": 10
        }
    },
    {
        "model": "homes.municipality",
        "pk": 117,
        "fields": {
            "name_municipality": "Mauroa",
            "id_state_id": 10
        }
    },
    {
        "model": "homes.municipality",
        "pk": 118,
        "fields": {
            "name_municipality": "Miranda",
            "id_state_id": 10
        }
    },
    {
        "model": "homes.municipality",
        "pk": 119,
        "fields": {
            "name_municipality": "Monseñor Iturriza",
            "id_state_id": 10
        }
    },
    {
        "model": "homes.municipality",
        "pk": 120,
        "fields": {
            "name_municipality": "Palmasola",
            "id_state_id": 10
        }
    },
    {
        "model": "homes.municipality",
        "pk": 121,
        "fields": {
            "name_municipality": "Petit",
            "id_state_id": 10
        }
    },
    {
        "model": "homes.municipality",
        "pk": 122,
        "fields": {
            "name_municipality": "Píritu",
            "id_state_id": 10
        }
    },
    {
        "model": "homes.municipality",
        "pk": 123,
        "fields": {
            "name_municipality": "San Francisco",
            "id_state_id": 10
        }
    },
    {
        "model": "homes.municipality",
        "pk": 124,
        "fields": {
            "name_municipality": "Sucre",
            "id_state_id": 10
        }
    },
    {
        "model": "homes.municipality",
        "pk": 125,
        "fields": {
            "name_municipality": "Tocópero",
            "id_state_id": 10
        }
    },
    {
        "model": "homes.municipality",
        "pk": 126,
        "fields": {
            "name_municipality": "Unión",
            "id_state_id": 10
        }
    },
    {
        "model": "homes.municipality",
        "pk": 127,
        "fields": {
            "name_municipality": "Urumaco",
            "id_state_id": 10
        }
    },
    {
        "model": "homes.municipality",
        "pk": 128,
        "fields": {
            "name_municipality": "Zamora",
            "id_state_id": 10
        }
    },
    {
        "model": "homes.municipality",
        "pk": 129,
        "fields": {
            "name_municipality": "Camaguán",
            "id_state_id": 11
        }
    },
    {
        "model": "homes.municipality",
        "pk": 130,
        "fields": {
            "name_municipality": "Chaguaramas",
            "id_state_id": 11
        }
    },
    {
        "model": "homes.municipality",
        "pk": 131,
        "fields": {
            "name_municipality": "El Socorro",
            "id_state_id": 11
        }
    },
    {
        "model": "homes.municipality",
        "pk": 132,
        "fields": {
            "name_municipality": "José Félix Ribas",
            "id_state_id": 11
        }
    },
    {
        "model": "homes.municipality",
        "pk": 133,
        "fields": {
            "name_municipality": "José Tadeo Monagas",
            "id_state_id": 11
        }
    },
    {
        "model": "homes.municipality",
        "pk": 134,
        "fields": {
            "name_municipality": "Juan Germán Roscio",
            "id_state_id": 11
        }
    },
    {
        "model": "homes.municipality",
        "pk": 135,
        "fields": {
            "name_municipality": "Julián Mellado",
            "id_state_id": 11
        }
    },
    {
        "model": "homes.municipality",
        "pk": 136,
        "fields": {
            "name_municipality": "Las Mercedes",
            "id_state_id": 11
        }
    },
    {
        "model": "homes.municipality",
        "pk": 137,
        "fields": {
            "name_municipality": "Leonardo Infante",
            "id_state_id": 11
        }
    },
    {
        "model": "homes.municipality",
        "pk": 138,
        "fields": {
            "name_municipality": "Pedro Zaraza",
            "id_state_id": 11
        }
    },
    {
        "model": "homes.municipality",
        "pk": 139,
        "fields": {
            "name_municipality": "Ortíz",
            "id_state_id": 11
        }
    },
    {
        "model": "homes.municipality",
        "pk": 140,
        "fields": {
            "name_municipality": "San Gerónimo de Guayabal",
            "id_state_id": 11
        }
    },
    {
        "model": "homes.municipality",
        "pk": 141,
        "fields": {
            "name_municipality": "San José de Guaribe",
            "id_state_id": 11
        }
    },
    {
        "model": "homes.municipality",
        "pk": 142,
        "fields": {
            "name_municipality": "Santa María de Ipire",
            "id_state_id": 11
        }
    },
    {
        "model": "homes.municipality",
        "pk": 143,
        "fields": {
            "name_municipality": "Sebastián Francisco de Miranda",
            "id_state_id": 11
        }
    },
    {
        "model": "homes.municipality",
        "pk": 144,
        "fields": {
            "name_municipality": "Andrés Eloy Blanco",
            "id_state_id": 12
        }
    },
    {
        "model": "homes.municipality",
        "pk": 145,
        "fields": {
            "name_municipality": "Crespo",
            "id_state_id": 12
        }
    },
    {
        "model": "homes.municipality",
        "pk": 146,
        "fields": {
            "name_municipality": "Iribarren",
            "id_state_id": 12
        }
    },
    {
        "model": "homes.municipality",
        "pk": 147,
        "fields": {
            "name_municipality": "Jiménez",
            "id_state_id": 12
        }
    },
    {
        "model": "homes.municipality",
        "pk": 148,
        "fields": {
            "name_municipality": "Morán",
            "id_state_id": 12
        }
    },
    {
        "model": "homes.municipality",
        "pk": 149,
        "fields": {
            "name_municipality": "Palavecino",
            "id_state_id": 12
        }
    },
    {
        "model": "homes.municipality",
        "pk": 150,
        "fields": {
            "name_municipality": "Simón Planas",
            "id_state_id": 12
        }
    },
    {
        "model": "homes.municipality",
        "pk": 151,
        "fields": {
            "name_municipality": "Torres",
            "id_state_id": 12
        }
    },
    {
        "model": "homes.municipality",
        "pk": 152,
        "fields": {
            "name_municipality": "Urdaneta",
            "id_state_id": 12
        }
    },
    {
        "model": "homes.municipality",
        "pk": 179,
        "fields": {
            "name_municipality": "Alberto Adriani",
            "id_state_id": 13
        }
    },
    {
        "model": "homes.municipality",
        "pk": 180,
        "fields": {
            "name_municipality": "Andrés Bello",
            "id_state_id": 13
        }
    },
    {
        "model": "homes.municipality",
        "pk": 181,
        "fields": {
            "name_municipality": "Antonio Pinto Salinas",
            "id_state_id": 13
        }
    },
    {
        "model": "homes.municipality",
        "pk": 182,
        "fields": {
            "name_municipality": "Aricagua",
            "id_state_id": 13
        }
    },
    {
        "model": "homes.municipality",
        "pk": 183,
        "fields": {
            "name_municipality": "Arzobispo Chacón",
            "id_state_id": 13
        }
    },
    {
        "model": "homes.municipality",
        "pk": 184,
        "fields": {
            "name_municipality": "Campo Elías",
            "id_state_id": 13
        }
    },
    {
        "model": "homes.municipality",
        "pk": 185,
        "fields": {
            "name_municipality": "Caracciolo Parra Olmedo",
            "id_state_id": 13
        }
    },
    {
        "model": "homes.municipality",
        "pk": 186,
        "fields": {
            "name_municipality": "Cardenal Quintero",
            "id_state_id": 13
        }
    },
    {
        "model": "homes.municipality",
        "pk": 187,
        "fields": {
            "name_municipality": "Guaraque",
            "id_state_id": 13
        }
    },
    {
        "model": "homes.municipality",
        "pk": 188,
        "fields": {
            "name_municipality": "Julio César Salas",
            "id_state_id": 13
        }
    },
    {
        "model": "homes.municipality",
        "pk": 189,
        "fields": {
            "name_municipality": "Justo Briceño",
            "id_state_id": 13
        }
    },
    {
        "model": "homes.municipality",
        "pk": 190,
        "fields": {
            "name_municipality": "Libertador",
            "id_state_id": 13
        }
    },
    {
        "model": "homes.municipality",
        "pk": 191,
        "fields": {
            "name_municipality": "Miranda",
            "id_state_id": 13
        }
    },
    {
        "model": "homes.municipality",
        "pk": 192,
        "fields": {
            "name_municipality": "Obispo Ramos de Lora",
            "id_state_id": 13
        }
    },
    {
        "model": "homes.municipality",
        "pk": 193,
        "fields": {
            "name_municipality": "Padre Noguera",
            "id_state_id": 13
        }
    },
    {
        "model": "homes.municipality",
        "pk": 194,
        "fields": {
            "name_municipality": "Pueblo Llano",
            "id_state_id": 13
        }
    },
    {
        "model": "homes.municipality",
        "pk": 195,
        "fields": {
            "name_municipality": "Rangel",
            "id_state_id": 13
        }
    },
    {
        "model": "homes.municipality",
        "pk": 196,
        "fields": {
            "name_municipality": "Rivas Dávila",
            "id_state_id": 13
        }
    },
    {
        "model": "homes.municipality",
        "pk": 197,
        "fields": {
            "name_municipality": "Santos Marquina",
            "id_state_id": 13
        }
    },
    {
        "model": "homes.municipality",
        "pk": 198,
        "fields": {
            "name_municipality": "Sucre",
            "id_state_id": 13
        }
    },
    {
        "model": "homes.municipality",
        "pk": 199,
        "fields": {
            "name_municipality": "Tovar",
            "id_state_id": 13
        }
    },
    {
        "model": "homes.municipality",
        "pk": 200,
        "fields": {
            "name_municipality": "Tulio Febres Cordero",
            "id_state_id": 13
        }
    },
    {
        "model": "homes.municipality",
        "pk": 201,
        "fields": {
            "name_municipality": "Zea",
            "id_state_id": 13
        }
    },
    {
        "model": "homes.municipality",
        "pk": 223,
        "fields": {
            "name_municipality": "Acevedo",
            "id_state_id": 14
        }
    },
    {
        "model": "homes.municipality",
        "pk": 224,
        "fields": {
            "name_municipality": "Andrés Bello",
            "id_state_id": 14
        }
    },
    {
        "model": "homes.municipality",
        "pk": 225,
        "fields": {
            "name_municipality": "Baruta",
            "id_state_id": 14
        }
    },
    {
        "model": "homes.municipality",
        "pk": 226,
        "fields": {
            "name_municipality": "Brión",
            "id_state_id": 14
        }
    },
    {
        "model": "homes.municipality",
        "pk": 227,
        "fields": {
            "name_municipality": "Buroz",
            "id_state_id": 14
        }
    },
    {
        "model": "homes.municipality",
        "pk": 228,
        "fields": {
            "name_municipality": "Carrizal",
            "id_state_id": 14
        }
    },
    {
        "model": "homes.municipality",
        "pk": 229,
        "fields": {
            "name_municipality": "Chacao",
            "id_state_id": 14
        }
    },
    {
        "model": "homes.municipality",
        "pk": 230,
        "fields": {
            "name_municipality": "Cristóbal Rojas",
            "id_state_id": 14
        }
    },
    {
        "model": "homes.municipality",
        "pk": 231,
        "fields": {
            "name_municipality": "El Hatillo",
            "id_state_id": 14
        }
    },
    {
        "model": "homes.municipality",
        "pk": 232,
        "fields": {
            "name_municipality": "Guaicaipuro",
            "id_state_id": 14
        }
    },
    {
        "model": "homes.municipality",
        "pk": 233,
        "fields": {
            "name_municipality": "Independencia",
            "id_state_id": 14
        }
    },
    {
        "model": "homes.municipality",
        "pk": 234,
        "fields": {
            "name_municipality": "Lander",
            "id_state_id": 14
        }
    },
    {
        "model": "homes.municipality",
        "pk": 235,
        "fields": {
            "name_municipality": "Los Salias",
            "id_state_id": 14
        }
    },
    {
        "model": "homes.municipality",
        "pk": 236,
        "fields": {
            "name_municipality": "Páez",
            "id_state_id": 14
        }
    },
    {
        "model": "homes.municipality",
        "pk": 237,
        "fields": {
            "name_municipality": "Paz Castillo",
            "id_state_id": 14
        }
    },
    {
        "model": "homes.municipality",
        "pk": 238,
        "fields": {
            "name_municipality": "Pedro Gual",
            "id_state_id": 14
        }
    },
    {
        "model": "homes.municipality",
        "pk": 239,
        "fields": {
            "name_municipality": "Plaza",
            "id_state_id": 14
        }
    },
    {
        "model": "homes.municipality",
        "pk": 240,
        "fields": {
            "name_municipality": "Simón Bolívar",
            "id_state_id": 14
        }
    },
    {
        "model": "homes.municipality",
        "pk": 241,
        "fields": {
            "name_municipality": "Sucre",
            "id_state_id": 14
        }
    },
    {
        "model": "homes.municipality",
        "pk": 242,
        "fields": {
            "name_municipality": "Urdaneta",
            "id_state_id": 14
        }
    },
    {
        "model": "homes.municipality",
        "pk": 243,
        "fields": {
            "name_municipality": "Zamora",
            "id_state_id": 14
        }
    },
    {
        "model": "homes.municipality",
        "pk": 258,
        "fields": {
            "name_municipality": "Acosta",
            "id_state_id": 15
        }
    },
    {
        "model": "homes.municipality",
        "pk": 259,
        "fields": {
            "name_municipality": "Aguasay",
            "id_state_id": 15
        }
    },
    {
        "model": "homes.municipality",
        "pk": 260,
        "fields": {
            "name_municipality": "Bolívar",
            "id_state_id": 15
        }
    },
    {
        "model": "homes.municipality",
        "pk": 261,
        "fields": {
            "name_municipality": "Caripe",
            "id_state_id": 15
        }
    },
    {
        "model": "homes.municipality",
        "pk": 262,
        "fields": {
            "name_municipality": "Cedeño",
            "id_state_id": 15
        }
    },
    {
        "model": "homes.municipality",
        "pk": 263,
        "fields": {
            "name_municipality": "Ezequiel Zamora",
            "id_state_id": 15
        }
    },
    {
        "model": "homes.municipality",
        "pk": 264,
        "fields": {
            "name_municipality": "Libertador",
            "id_state_id": 15
        }
    },
    {
        "model": "homes.municipality",
        "pk": 265,
        "fields": {
            "name_municipality": "Maturín",
            "id_state_id": 15
        }
    },
    {
        "model": "homes.municipality",
        "pk": 266,
        "fields": {
            "name_municipality": "Piar",
            "id_state_id": 15
        }
    },
    {
        "model": "homes.municipality",
        "pk": 267,
        "fields": {
            "name_municipality": "Punceres",
            "id_state_id": 15
        }
    },
    {
        "model": "homes.municipality",
        "pk": 268,
        "fields": {
            "name_municipality": "Santa Bárbara",
            "id_state_id": 15
        }
    },
    {
        "model": "homes.municipality",
        "pk": 269,
        "fields": {
            "name_municipality": "Sotillo",
            "id_state_id": 15
        }
    },
    {
        "model": "homes.municipality",
        "pk": 270,
        "fields": {
            "name_municipality": "Uracoa",
            "id_state_id": 15
        }
    },
    {
        "model": "homes.municipality",
        "pk": 271,
        "fields": {
            "name_municipality": "Antolín del Campo",
            "id_state_id": 16
        }
    },
    {
        "model": "homes.municipality",
        "pk": 272,
        "fields": {
            "name_municipality": "Arismendi",
            "id_state_id": 16
        }
    },
    {
        "model": "homes.municipality",
        "pk": 273,
        "fields": {
            "name_municipality": "García",
            "id_state_id": 16
        }
    },
    {
        "model": "homes.municipality",
        "pk": 274,
        "fields": {
            "name_municipality": "Gómez",
            "id_state_id": 16
        }
    },
    {
        "model": "homes.municipality",
        "pk": 275,
        "fields": {
            "name_municipality": "Maneiro",
            "id_state_id": 16
        }
    },
    {
        "model": "homes.municipality",
        "pk": 276,
        "fields": {
            "name_municipality": "Marcano",
            "id_state_id": 16
        }
    },
    {
        "model": "homes.municipality",
        "pk": 277,
        "fields": {
            "name_municipality": "Mariño",
            "id_state_id": 16
        }
    },
    {
        "model": "homes.municipality",
        "pk": 278,
        "fields": {
            "name_municipality": "Península de Macanao",
            "id_state_id": 16
        }
    },
    {
        "model": "homes.municipality",
        "pk": 279,
        "fields": {
            "name_municipality": "Tubores",
            "id_state_id": 16
        }
    },
    {
        "model": "homes.municipality",
        "pk": 280,
        "fields": {
            "name_municipality": "Villalba",
            "id_state_id": 16
        }
    },
    {
        "model": "homes.municipality",
        "pk": 281,
        "fields": {
            "name_municipality": "Díaz",
            "id_state_id": 16
        }
    },
    {
        "model": "homes.municipality",
        "pk": 282,
        "fields": {
            "name_municipality": "Agua Blanca",
            "id_state_id": 17
        }
    },
    {
        "model": "homes.municipality",
        "pk": 283,
        "fields": {
            "name_municipality": "Araure",
            "id_state_id": 17
        }
    },
    {
        "model": "homes.municipality",
        "pk": 284,
        "fields": {
            "name_municipality": "Esteller",
            "id_state_id": 17
        }
    },
    {
        "model": "homes.municipality",
        "pk": 285,
        "fields": {
            "name_municipality": "Guanare",
            "id_state_id": 17
        }
    },
    {
        "model": "homes.municipality",
        "pk": 286,
        "fields": {
            "name_municipality": "Guanarito",
            "id_state_id": 17
        }
    },
    {
        "model": "homes.municipality",
        "pk": 287,
        "fields": {
            "name_municipality": "Monseñor José Vicente de Unda",
            "id_state_id": 17
        }
    },
    {
        "model": "homes.municipality",
        "pk": 288,
        "fields": {
            "name_municipality": "Ospino",
            "id_state_id": 17
        }
    },
    {
        "model": "homes.municipality",
        "pk": 289,
        "fields": {
            "name_municipality": "Páez",
            "id_state_id": 17
        }
    },
    {
        "model": "homes.municipality",
        "pk": 290,
        "fields": {
            "name_municipality": "Papelón",
            "id_state_id": 17
        }
    },
    {
        "model": "homes.municipality",
        "pk": 291,
        "fields": {
            "name_municipality": "San Genaro de Boconoíto",
            "id_state_id": 17
        }
    },
    {
        "model": "homes.municipality",
        "pk": 292,
        "fields": {
            "name_municipality": "San Rafael de Onoto",
            "id_state_id": 17
        }
    },
    {
        "model": "homes.municipality",
        "pk": 293,
        "fields": {
            "name_municipality": "Santa Rosalía",
            "id_state_id": 17
        }
    },
    {
        "model": "homes.municipality",
        "pk": 294,
        "fields": {
            "name_municipality": "Sucre",
            "id_state_id": 17
        }
    },
    {
        "model": "homes.municipality",
        "pk": 295,
        "fields": {
            "name_municipality": "Turén",
            "id_state_id": 17
        }
    },
    {
        "model": "homes.municipality",
        "pk": 296,
        "fields": {
            "name_municipality": "Andrés Eloy Blanco",
            "id_state_id": 18
        }
    },
    {
        "model": "homes.municipality",
        "pk": 297,
        "fields": {
            "name_municipality": "Andrés Mata",
            "id_state_id": 18
        }
    },
    {
        "model": "homes.municipality",
        "pk": 298,
        "fields": {
            "name_municipality": "Arismendi",
            "id_state_id": 18
        }
    },
    {
        "model": "homes.municipality",
        "pk": 299,
        "fields": {
            "name_municipality": "Benítez",
            "id_state_id": 18
        }
    },
    {
        "model": "homes.municipality",
        "pk": 300,
        "fields": {
            "name_municipality": "Bermúdez",
            "id_state_id": 18
        }
    },
    {
        "model": "homes.municipality",
        "pk": 301,
        "fields": {
            "name_municipality": "Bolívar",
            "id_state_id": 18
        }
    },
    {
        "model": "homes.municipality",
        "pk": 302,
        "fields": {
            "name_municipality": "Cajigal",
            "id_state_id": 18
        }
    },
    {
        "model": "homes.municipality",
        "pk": 303,
        "fields": {
            "name_municipality": "Cruz Salmerón Acosta",
            "id_state_id": 18
        }
    },
    {
        "model": "homes.municipality",
        "pk": 304,
        "fields": {
            "name_municipality": "Libertador",
            "id_state_id": 18
        }
    },
    {
        "model": "homes.municipality",
        "pk": 305,
        "fields": {
            "name_municipality": "Mariño",
            "id_state_id": 18
        }
    },
    {
        "model": "homes.municipality",
        "pk": 306,
        "fields": {
            "name_municipality": "Mejía",
            "id_state_id": 18
        }
    },
    {
        "model": "homes.municipality",
        "pk": 307,
        "fields": {
            "name_municipality": "Montes",
            "id_state_id": 18
        }
    },
    {
        "model": "homes.municipality",
        "pk": 308,
        "fields": {
            "name_municipality": "Ribero",
            "id_state_id": 18
        }
    },
    {
        "model": "homes.municipality",
        "pk": 309,
        "fields": {
            "name_municipality": "Sucre",
            "id_state_id": 18
        }
    },
    {
        "model": "homes.municipality",
        "pk": 310,
        "fields": {
            "name_municipality": "Valdéz",
            "id_state_id": 18
        }
    },
    {
        "model": "homes.municipality",
        "pk": 341,
        "fields": {
            "name_municipality": "Andrés Bello",
            "id_state_id": 19
        }
    },
    {
        "model": "homes.municipality",
        "pk": 342,
        "fields": {
            "name_municipality": "Antonio Rómulo Costa",
            "id_state_id": 19
        }
    },
    {
        "model": "homes.municipality",
        "pk": 343,
        "fields": {
            "name_municipality": "Ayacucho",
            "id_state_id": 19
        }
    },
    {
        "model": "homes.municipality",
        "pk": 344,
        "fields": {
            "name_municipality": "Bolívar",
            "id_state_id": 19
        }
    },
    {
        "model": "homes.municipality",
        "pk": 345,
        "fields": {
            "name_municipality": "Cárdenas",
            "id_state_id": 19
        }
    },
    {
        "model": "homes.municipality",
        "pk": 346,
        "fields": {
            "name_municipality": "Córdoba",
            "id_state_id": 19
        }
    },
    {
        "model": "homes.municipality",
        "pk": 347,
        "fields": {
            "name_municipality": "Fernández Feo",
            "id_state_id": 19
        }
    },
    {
        "model": "homes.municipality",
        "pk": 348,
        "fields": {
            "name_municipality": "Francisco de Miranda",
            "id_state_id": 19
        }
    },
    {
        "model": "homes.municipality",
        "pk": 349,
        "fields": {
            "name_municipality": "García de Hevia",
            "id_state_id": 19
        }
    },
    {
        "model": "homes.municipality",
        "pk": 350,
        "fields": {
            "name_municipality": "Guásimos",
            "id_state_id": 19
        }
    },
    {
        "model": "homes.municipality",
        "pk": 351,
        "fields": {
            "name_municipality": "Independencia",
            "id_state_id": 19
        }
    },
    {
        "model": "homes.municipality",
        "pk": 352,
        "fields": {
            "name_municipality": "Jáuregui",
            "id_state_id": 19
        }
    },
    {
        "model": "homes.municipality",
        "pk": 353,
        "fields": {
            "name_municipality": "José María Vargas",
            "id_state_id": 19
        }
    },
    {
        "model": "homes.municipality",
        "pk": 354,
        "fields": {
            "name_municipality": "Junín",
            "id_state_id": 19
        }
    },
    {
        "model": "homes.municipality",
        "pk": 355,
        "fields": {
            "name_municipality": "Libertad",
            "id_state_id": 19
        }
    },
    {
        "model": "homes.municipality",
        "pk": 356,
        "fields": {
            "name_municipality": "Libertador",
            "id_state_id": 19
        }
    },
    {
        "model": "homes.municipality",
        "pk": 357,
        "fields": {
            "name_municipality": "Lobatera",
            "id_state_id": 19
        }
    },
    {
        "model": "homes.municipality",
        "pk": 358,
        "fields": {
            "name_municipality": "Michelena",
            "id_state_id": 19
        }
    },
    {
        "model": "homes.municipality",
        "pk": 359,
        "fields": {
            "name_municipality": "Paname_municipalityricano",
            "id_state_id": 19
        }
    },
    {
        "model": "homes.municipality",
        "pk": 360,
        "fields": {
            "name_municipality": "Pedro María Ureña",
            "id_state_id": 19
        }
    },
    {
        "model": "homes.municipality",
        "pk": 361,
        "fields": {
            "name_municipality": "Rafael Urdaneta",
            "id_state_id": 19
        }
    },
    {
        "model": "homes.municipality",
        "pk": 362,
        "fields": {
            "name_municipality": "Samuel Darío Maldonado",
            "id_state_id": 19
        }
    },
    {
        "model": "homes.municipality",
        "pk": 363,
        "fields": {
            "name_municipality": "San Cristóbal",
            "id_state_id": 19
        }
    },
    {
        "model": "homes.municipality",
        "pk": 364,
        "fields": {
            "name_municipality": "Seboruco",
            "id_state_id": 19
        }
    },
    {
        "model": "homes.municipality",
        "pk": 365,
        "fields": {
            "name_municipality": "Simón Rodríguez",
            "id_state_id": 19
        }
    },
    {
        "model": "homes.municipality",
        "pk": 366,
        "fields": {
            "name_municipality": "Sucre",
            "id_state_id": 19
        }
    },
    {
        "model": "homes.municipality",
        "pk": 367,
        "fields": {
            "name_municipality": "Torbes",
            "id_state_id": 19
        }
    },
    {
        "model": "homes.municipality",
        "pk": 368,
        "fields": {
            "name_municipality": "Uribante",
            "id_state_id": 19
        }
    },
    {
        "model": "homes.municipality",
        "pk": 369,
        "fields": {
            "name_municipality": "San Judas Tadeo",
            "id_state_id": 19
        }
    },
    {
        "model": "homes.municipality",
        "pk": 370,
        "fields": {
            "name_municipality": "Andrés Bello",
            "id_state_id": 20
        }
    },
    {
        "model": "homes.municipality",
        "pk": 371,
        "fields": {
            "name_municipality": "Boconó",
            "id_state_id": 20
        }
    },
    {
        "model": "homes.municipality",
        "pk": 372,
        "fields": {
            "name_municipality": "Bolívar",
            "id_state_id": 20
        }
    },
    {
        "model": "homes.municipality",
        "pk": 373,
        "fields": {
            "name_municipality": "Candelaria",
            "id_state_id": 20
        }
    },
    {
        "model": "homes.municipality",
        "pk": 374,
        "fields": {
            "name_municipality": "Carache",
            "id_state_id": 20
        }
    },
    {
        "model": "homes.municipality",
        "pk": 375,
        "fields": {
            "name_municipality": "Escuque",
            "id_state_id": 20
        }
    },
    {
        "model": "homes.municipality",
        "pk": 376,
        "fields": {
            "name_municipality": "José Felipe Márquez Cañizalez",
            "id_state_id": 20
        }
    },
    {
        "model": "homes.municipality",
        "pk": 377,
        "fields": {
            "name_municipality": "Juan Vicente Campos Elías",
            "id_state_id": 20
        }
    },
    {
        "model": "homes.municipality",
        "pk": 378,
        "fields": {
            "name_municipality": "La Ceiba",
            "id_state_id": 20
        }
    },
    {
        "model": "homes.municipality",
        "pk": 379,
        "fields": {
            "name_municipality": "Miranda",
            "id_state_id": 20
        }
    },
    {
        "model": "homes.municipality",
        "pk": 380,
        "fields": {
            "name_municipality": "Monte Carmelo",
            "id_state_id": 20
        }
    },
    {
        "model": "homes.municipality",
        "pk": 381,
        "fields": {
            "name_municipality": "Motatán",
            "id_state_id": 20
        }
    },
    {
        "model": "homes.municipality",
        "pk": 382,
        "fields": {
            "name_municipality": "Pampán",
            "id_state_id": 20
        }
    },
    {
        "model": "homes.municipality",
        "pk": 383,
        "fields": {
            "name_municipality": "Pampanito",
            "id_state_id": 20
        }
    },
    {
        "model": "homes.municipality",
        "pk": 384,
        "fields": {
            "name_municipality": "Rafael Rangel",
            "id_state_id": 20
        }
    },
    {
        "model": "homes.municipality",
        "pk": 385,
        "fields": {
            "name_municipality": "San Rafael de Carvajal",
            "id_state_id": 20
        }
    },
    {
        "model": "homes.municipality",
        "pk": 386,
        "fields": {
            "name_municipality": "Sucre",
            "id_state_id": 20
        }
    },
    {
        "model": "homes.municipality",
        "pk": 387,
        "fields": {
            "name_municipality": "Trujillo",
            "id_state_id": 20
        }
    },
    {
        "model": "homes.municipality",
        "pk": 388,
        "fields": {
            "name_municipality": "Urdaneta",
            "id_state_id": 20
        }
    },
    {
        "model": "homes.municipality",
        "pk": 389,
        "fields": {
            "name_municipality": "Valera",
            "id_state_id": 20
        }
    },
    {
        "model": "homes.municipality",
        "pk": 390,
        "fields": {
            "name_municipality": "Vargas",
            "id_state_id": 21
        }
    },
    {
        "model": "homes.municipality",
        "pk": 391,
        "fields": {
            "name_municipality": "Arístides Bastidas",
            "id_state_id": 22
        }
    },
    {
        "model": "homes.municipality",
        "pk": 392,
        "fields": {
            "name_municipality": "Bolívar",
            "id_state_id": 22
        }
    },
    {
        "model": "homes.municipality",
        "pk": 407,
        "fields": {
            "name_municipality": "Bruzual",
            "id_state_id": 22
        }
    },
    {
        "model": "homes.municipality",
        "pk": 408,
        "fields": {
            "name_municipality": "Cocorote",
            "id_state_id": 22
        }
    },
    {
        "model": "homes.municipality",
        "pk": 409,
        "fields": {
            "name_municipality": "Independencia",
            "id_state_id": 22
        }
    },
    {
        "model": "homes.municipality",
        "pk": 410,
        "fields": {
            "name_municipality": "José Antonio Páez",
            "id_state_id": 22
        }
    },
    {
        "model": "homes.municipality",
        "pk": 411,
        "fields": {
            "name_municipality": "La Trinidad",
            "id_state_id": 22
        }
    },
    {
        "model": "homes.municipality",
        "pk": 412,
        "fields": {
            "name_municipality": "Manuel Monge",
            "id_state_id": 22
        }
    },
    {
        "model": "homes.municipality",
        "pk": 413,
        "fields": {
            "name_municipality": "Nirgua",
            "id_state_id": 22
        }
    },
    {
        "model": "homes.municipality",
        "pk": 414,
        "fields": {
            "name_municipality": "Peña",
            "id_state_id": 22
        }
    },
    {
        "model": "homes.municipality",
        "pk": 415,
        "fields": {
            "name_municipality": "San Felipe",
            "id_state_id": 22
        }
    },
    {
        "model": "homes.municipality",
        "pk": 416,
        "fields": {
            "name_municipality": "Sucre",
            "id_state_id": 22
        }
    },
    {
        "model": "homes.municipality",
        "pk": 417,
        "fields": {
            "name_municipality": "Urachiche",
            "id_state_id": 22
        }
    },
    {
        "model": "homes.municipality",
        "pk": 418,
        "fields": {
            "name_municipality": "José Joaquín Veroes",
            "id_state_id": 22
        }
    },
    {
        "model": "homes.municipality",
        "pk": 441,
        "fields": {
            "name_municipality": "Almirante Padilla",
            "id_state_id": 23
        }
    },
    {
        "model": "homes.municipality",
        "pk": 442,
        "fields": {
            "name_municipality": "Baralt",
            "id_state_id": 23
        }
    },
    {
        "model": "homes.municipality",
        "pk": 443,
        "fields": {
            "name_municipality": "Cabimas",
            "id_state_id": 23
        }
    },
    {
        "model": "homes.municipality",
        "pk": 444,
        "fields": {
            "name_municipality": "Catatumbo",
            "id_state_id": 23
        }
    },
    {
        "model": "homes.municipality",
        "pk": 445,
        "fields": {
            "name_municipality": "Colón",
            "id_state_id": 23
        }
    },
    {
        "model": "homes.municipality",
        "pk": 446,
        "fields": {
            "name_municipality": "Francisco Javier Pulgar",
            "id_state_id": 23
        }
    },
    {
        "model": "homes.municipality",
        "pk": 447,
        "fields": {
            "name_municipality": "Páez",
            "id_state_id": 23
        }
    },
    {
        "model": "homes.municipality",
        "pk": 448,
        "fields": {
            "name_municipality": "Jesús Enrique Losada",
            "id_state_id": 23
        }
    },
    {
        "model": "homes.municipality",
        "pk": 449,
        "fields": {
            "name_municipality": "Jesús María Semprún",
            "id_state_id": 23
        }
    },
    {
        "model": "homes.municipality",
        "pk": 450,
        "fields": {
            "name_municipality": "La Cañada de Urdaneta",
            "id_state_id": 23
        }
    },
    {
        "model": "homes.municipality",
        "pk": 451,
        "fields": {
            "name_municipality": "Lagunillas",
            "id_state_id": 23
        }
    },
    {
        "model": "homes.municipality",
        "pk": 452,
        "fields": {
            "name_municipality": "Machiques de Perijá",
            "id_state_id": 23
        }
    },
    {
        "model": "homes.municipality",
        "pk": 453,
        "fields": {
            "name_municipality": "Mara",
            "id_state_id": 23
        }
    },
    {
        "model": "homes.municipality",
        "pk": 454,
        "fields": {
            "name_municipality": "Maracaibo",
            "id_state_id": 23
        }
    },
    {
        "model": "homes.municipality",
        "pk": 455,
        "fields": {
            "name_municipality": "Miranda",
            "id_state_id": 23
        }
    },
    {
        "model": "homes.municipality",
        "pk": 456,
        "fields": {
            "name_municipality": "Rosario de Perijá",
            "id_state_id": 23
        }
    },
    {
        "model": "homes.municipality",
        "pk": 457,
        "fields": {
            "name_municipality": "San Francisco",
            "id_state_id": 23
        }
    },
    {
        "model": "homes.municipality",
        "pk": 458,
        "fields": {
            "name_municipality": "Santa Rita",
            "id_state_id": 23
        }
    },
    {
        "model": "homes.municipality",
        "pk": 459,
        "fields": {
            "name_municipality": "Simón Bolívar",
            "id_state_id": 23
        }
    },
    {
        "model": "homes.municipality",
        "pk": 460,
        "fields": {
            "name_municipality": "Sucre",
            "id_state_id": 23
        }
    },
    {
        "model": "homes.municipality",
        "pk": 461,
        "fields": {
            "name_municipality": "Valmore Rodríguez",
            "id_state_id": 23
        }
    },
    {
        "model": "homes.municipality",
        "pk": 462,
        "fields": {
            "name_municipality": "Libertador",
            "id_state_id": 24
        }
    }
]